<svg width="24" height="23" viewBox="0 0 24 23" fill="none" xmlns="http://www.w3.org/2000/svg">
<g clip-path="url(#clip0)">
<path d="M21.913 5.04399H18.6052L16.6957 2.95703H10.4348V5.04399H15.7774L17.687 7.13095H21.913V19.6527H5.21739V10.2614H3.13043V19.6527C3.13043 20.8005 4.06957 21.7396 5.21739 21.7396H21.913C23.0609 21.7396 24 20.8005 24 19.6527V7.13095C24 5.98312 23.0609 5.04399 21.913 5.04399ZM8.34783 13.3918C8.34783 16.2718 10.6852 18.6092 13.5652 18.6092C16.4452 18.6092 18.7826 16.2718 18.7826 13.3918C18.7826 10.5118 16.4452 8.17443 13.5652 8.17443C10.6852 8.17443 8.34783 10.5118 8.34783 13.3918ZM13.5652 10.2614C15.287 10.2614 16.6957 11.6701 16.6957 13.3918C16.6957 15.1136 15.287 16.5223 13.5652 16.5223C11.8435 16.5223 10.4348 15.1136 10.4348 13.3918C10.4348 11.6701 11.8435 10.2614 13.5652 10.2614ZM5.21739 5.04399H8.34783V2.95703H5.21739V-0.173401H3.13043V2.95703H0V5.04399H3.13043V8.17443H5.21739V5.04399Z" fill="#959595"/>
</g>
<defs>
<clipPath id="clip0">
<rect width="24" height="21.913" fill="white" transform="translate(0 0.103912)"/>
</clipPath>
</defs>
</svg>
