<svg xmlns="http://www.w3.org/2000/svg" width="19" height="2" viewBox="0 0 19 2">
  <line id="Линия_21" data-name="Линия 21" x2="17" transform="translate(1 1)" fill="none" stroke="#fff" stroke-linecap="round" stroke-width="2"/>
</svg>
