<svg xmlns="http://www.w3.org/2000/svg" width="153.297" height="64" viewBox="0 0 153.297 64">
  <g id="logotype" transform="translate(-78.91 -53.858)">
    <g id="Сгруппировать_32" data-name="Сгруппировать 32" transform="translate(118.953 113.643)">
      <path id="Контур_70" data-name="Контур 70" d="M107.585,96.734h-.3v-.508h1.405c.591,0,1.009.3,1.009.838a.757.757,0,0,1-.4.7v.01a.762.762,0,0,1,.524.765c0,.651-.518.944-1.118.944H107.9c-.216,0-.312-.092-.312-.312Zm1.113.82a.383.383,0,0,0,.394-.416.373.373,0,0,0-.4-.4h-.5v.82Zm-.412,1.415h.467a.469.469,0,0,0,0-.938h-.569v.838A.092.092,0,0,0,108.286,98.969Z" transform="translate(-107.287 -96.226)" fill="#fff"/>
      <path id="Контур_71" data-name="Контур 71" d="M110.169,97.48a.089.089,0,0,0-.1-.1h-.183v-.5h.535c.207,0,.308.087.308.284v.138a.986.986,0,0,1-.01.147h.01a.814.814,0,0,1,.742-.6.713.713,0,0,1,.11.01v.573a1.06,1.06,0,0,0-.143-.01.662.662,0,0,0-.636.491,1.248,1.248,0,0,0-.051.38v.926h-.581Z" transform="translate(-106.219 -95.969)" fill="#fff"/>
      <path id="Контур_72" data-name="Контур 72" d="M112.1,97.737a.09.09,0,0,0-.1-.1h-.183v-.5h.555c.216,0,.306.1.306.312v1.434a.091.091,0,0,0,.1.1h.183v.491H112.4c-.216,0-.306-.092-.306-.312Zm.027-1.511h.5v.536h-.5Z" transform="translate(-105.428 -96.226)" fill="#fff"/>
      <path id="Контур_73" data-name="Контур 73" d="M113.653,97.487a.089.089,0,0,0-.1-.1h-.183v-.5h.535c.207,0,.308.1.308.261v.069c0,.051,0,.1,0,.1h.008a.9.9,0,0,1,.826-.485c.516,0,.816.271.816.889v.912a.09.09,0,0,0,.1.1h.178v.491h-.549c-.22,0-.312-.092-.312-.312V97.844c0-.284-.073-.476-.365-.476a.645.645,0,0,0-.632.476,1.118,1.118,0,0,0-.042.312v1.072h-.581Z" transform="translate(-104.787 -95.975)" fill="#fff"/>
      <path id="Контур_74" data-name="Контур 74" d="M117.14,99.685c.357,0,.663-.151.663-.572V99c0-.055,0-.124,0-.124H117.8a.722.722,0,0,1-.651.3A1.072,1.072,0,0,1,116.1,98a1.044,1.044,0,0,1,1.034-1.164.791.791,0,0,1,.72.33h.008a.452.452,0,0,1,0-.059c0-.106.078-.216.261-.216h.54v.5h-.178c-.061,0-.1.031-.1.092v1.607a1.1,1.1,0,0,1-1.232,1.1,1.871,1.871,0,0,1-.83-.2l.179-.459A1.5,1.5,0,0,0,117.14,99.685ZM117.813,98c0-.531-.261-.673-.577-.673-.353,0-.55.257-.55.651s.212.71.587.71C117.552,98.692,117.813,98.531,117.813,98Z" transform="translate(-103.664 -95.975)" fill="#fff"/>
      <path id="Контур_75" data-name="Контур 75" d="M118.949,97.737a.089.089,0,0,0-.1-.1h-.183v-.5h.555c.214,0,.306.1.306.312v1.434a.091.091,0,0,0,.1.1h.183v.491h-.555c-.214,0-.306-.092-.306-.312Zm.028-1.511h.5v.536h-.5Z" transform="translate(-102.61 -96.226)" fill="#fff"/>
      <path id="Контур_76" data-name="Контур 76" d="M120.508,97.487a.089.089,0,0,0-.1-.1h-.183v-.5h.536c.206,0,.308.1.308.261v.069c0,.051,0,.1,0,.1h.008a.9.9,0,0,1,.824-.485c.518,0,.816.271.816.889v.912a.091.091,0,0,0,.1.1h.178v.491h-.549c-.22,0-.312-.092-.312-.312V97.844c0-.284-.073-.476-.367-.476a.646.646,0,0,0-.632.476,1.173,1.173,0,0,0-.041.312v1.072h-.581Z" transform="translate(-101.969 -95.975)" fill="#fff"/>
      <path id="Контур_77" data-name="Контур 77" d="M123.994,99.685c.357,0,.665-.151.665-.572V99c0-.055,0-.124,0-.124h-.008a.725.725,0,0,1-.651.3A1.073,1.073,0,0,1,122.954,98a1.045,1.045,0,0,1,1.036-1.164.791.791,0,0,1,.72.33h.008a.45.45,0,0,1,0-.059c0-.106.078-.216.261-.216h.54v.5h-.179a.088.088,0,0,0-.1.092v1.607a1.1,1.1,0,0,1-1.232,1.1,1.871,1.871,0,0,1-.83-.2l.179-.459A1.5,1.5,0,0,0,123.994,99.685ZM124.667,98c0-.531-.261-.673-.577-.673-.353,0-.549.257-.549.651s.21.71.586.71C124.406,98.692,124.667,98.531,124.667,98Z" transform="translate(-100.846 -95.975)" fill="#fff"/>
      <path id="Контур_78" data-name="Контур 78" d="M127.324,96.734h-.3v-.508h1.407c.59,0,1.008.3,1.008.838a.759.759,0,0,1-.394.7v.01a.762.762,0,0,1,.522.765c0,.651-.518.944-1.118.944h-.816c-.216,0-.312-.092-.312-.312Zm1.113.82a.382.382,0,0,0,.394-.416.373.373,0,0,0-.4-.4h-.5v.82Zm-.412,1.415h.467a.469.469,0,0,0,0-.938h-.569v.838A.092.092,0,0,0,128.025,98.969Z" transform="translate(-99.172 -96.226)" fill="#fff"/>
      <path id="Контур_79" data-name="Контур 79" d="M129.908,97.48a.089.089,0,0,0-.1-.1h-.183v-.5h.535c.207,0,.308.087.308.284v.138a.986.986,0,0,1-.01.147h.01a.814.814,0,0,1,.742-.6.713.713,0,0,1,.11.01v.573a1.06,1.06,0,0,0-.143-.01.662.662,0,0,0-.636.491,1.248,1.248,0,0,0-.051.38v.926h-.581Z" transform="translate(-98.104 -95.969)" fill="#fff"/>
      <path id="Контур_80" data-name="Контур 80" d="M132.935,97.762h.073v-.032c0-.32-.134-.444-.432-.444-.1,0-.31.028-.31.157v.123h-.546v-.247c0-.43.619-.481.844-.481.8,0,1.026.4,1.026.93v.871a.091.091,0,0,0,.1.1h.183v.491h-.526c-.216,0-.294-.12-.294-.257v-.1h-.008a.8.8,0,0,1-.724.412.713.713,0,0,1-.775-.7C131.546,97.8,132.553,97.762,132.935,97.762Zm-.459,1.077a.6.6,0,0,0,.536-.614V98.16h-.106c-.3,0-.783.047-.783.367A.321.321,0,0,0,132.476,98.838Z" transform="translate(-97.314 -95.975)" fill="#fff"/>
      <path id="Контур_81" data-name="Контур 81" d="M134.2,97.487a.089.089,0,0,0-.1-.1h-.183v-.5h.536c.206,0,.308.1.308.261v.069c0,.051,0,.1,0,.1h.008a.9.9,0,0,1,.824-.485c.518,0,.816.271.816.889v.912a.091.091,0,0,0,.1.1h.178v.491h-.549c-.22,0-.312-.092-.312-.312V97.844c0-.284-.073-.476-.367-.476a.646.646,0,0,0-.632.476,1.172,1.172,0,0,0-.041.312v1.072H134.2Z" transform="translate(-96.34 -95.975)" fill="#fff"/>
      <path id="Контур_82" data-name="Контур 82" d="M137.705,97.087a.755.755,0,0,1,.679.285h.008a1.113,1.113,0,0,1-.008-.138v-.412a.089.089,0,0,0-.1-.1H138.1v-.5h.555c.215,0,.306.1.306.312v2.349a.091.091,0,0,0,.1.1h.183v.491h-.536c-.21,0-.292-.1-.292-.238a.853.853,0,0,1,0-.087h-.008a.809.809,0,0,1-.734.381c-.632,0-1.036-.5-1.036-1.223A1.091,1.091,0,0,1,137.705,97.087Zm.11,1.956c.3,0,.587-.219.587-.737,0-.363-.189-.72-.583-.72-.316,0-.586.261-.586.724C137.234,98.755,137.472,99.043,137.815,99.043Z" transform="translate(-95.217 -96.226)" fill="#fff"/>
      <path id="Контур_83" data-name="Контур 83" d="M139.533,98.486a1.048,1.048,0,0,0,.7.343c.175,0,.312-.073.312-.229,0-.33-1.228-.325-1.228-1.081,0-.467.422-.683.9-.683.32,0,.82.106.82.485v.243h-.509V97.45c0-.11-.169-.165-.3-.165-.2,0-.343.073-.343.212,0,.365,1.236.294,1.236,1.071,0,.44-.389.715-.9.715a1.281,1.281,0,0,1-.971-.418Z" transform="translate(-94.144 -95.975)" fill="#fff"/>
      <path id="Контур_84" data-name="Контур 84" d="M143.167,96.734h-.3v-.508h1.324a1.627,1.627,0,1,1,0,3.253h-.715c-.214,0-.31-.092-.31-.312Zm.7,2.235h.294a1.119,1.119,0,0,0,0-2.235h-.394v2.135A.091.091,0,0,0,143.867,98.969Z" transform="translate(-92.659 -96.226)" fill="#fff"/>
      <path id="Контур_85" data-name="Контур 85" d="M146.059,97.737a.089.089,0,0,0-.1-.1h-.183v-.5h.555c.214,0,.306.1.306.312v1.434a.091.091,0,0,0,.1.1h.182v.491h-.553c-.216,0-.308-.092-.308-.312Zm.027-1.511h.505v.536h-.505Z" transform="translate(-91.465 -96.226)" fill="#fff"/>
      <path id="Контур_86" data-name="Контур 86" d="M147.618,97.48a.089.089,0,0,0-.1-.1h-.183v-.5h.536c.206,0,.308.087.308.284v.138a.985.985,0,0,1-.01.147h.01a.814.814,0,0,1,.742-.6.713.713,0,0,1,.11.01v.573a1.06,1.06,0,0,0-.143-.01.662.662,0,0,0-.636.491,1.248,1.248,0,0,0-.051.38v.926h-.581Z" transform="translate(-90.824 -95.969)" fill="#fff"/>
      <path id="Контур_87" data-name="Контур 87" d="M150.45,96.836a1.014,1.014,0,0,1,1.036,1.109,1.639,1.639,0,0,1-.018.224h-1.613a.668.668,0,0,0,.706.618,1.182,1.182,0,0,0,.669-.257l.229.418a1.571,1.571,0,0,1-.938.334,1.2,1.2,0,0,1-1.26-1.223A1.156,1.156,0,0,1,150.45,96.836Zm.453.934a.459.459,0,0,0-.467-.494.56.56,0,0,0-.563.494Z" transform="translate(-90.033 -95.975)" fill="#fff"/>
      <path id="Контур_88" data-name="Контур 88" d="M152.927,96.836c.3,0,.847.124.847.528v.274h-.508v-.128c0-.127-.2-.182-.339-.182a.724.724,0,0,0,.041,1.446,1.069,1.069,0,0,0,.691-.316l.238.4a1.321,1.321,0,0,1-.981.422,1.224,1.224,0,1,1,.01-2.447Z" transform="translate(-89.05 -95.975)" fill="#fff"/>
      <path id="Контур_89" data-name="Контур 89" d="M154.266,97.523h-.3V97.06h.32v-.636h.563v.636h.532v.463h-.532v.944a.417.417,0,0,0,.469.439.568.568,0,0,0,.1-.008v.508a1.073,1.073,0,0,1-.183.014.854.854,0,0,1-.971-.879Z" transform="translate(-88.098 -96.145)" fill="#fff"/>
      <path id="Контур_90" data-name="Контур 90" d="M158.331,96.734h-.5a.09.09,0,0,0-.1.1v.2H157.2V96.52c0-.216.073-.294.288-.294h2.273c.214,0,.292.078.292.294v.512h-.531v-.2a.09.09,0,0,0-.1-.1h-.494v2.745h-.6Z" transform="translate(-86.766 -96.226)" fill="#fff"/>
      <path id="Контур_91" data-name="Контур 91" d="M160.953,96.836a1.225,1.225,0,1,1-1.277,1.223A1.226,1.226,0,0,1,160.953,96.836Zm.006,1.952a.729.729,0,1,0-.7-.728A.695.695,0,0,0,160.959,98.788Z" transform="translate(-85.75 -95.975)" fill="#fff"/>
      <path id="Контур_92" data-name="Контур 92" d="M164.072,96.734h-.3v-.508h1.86c.214,0,.306.1.306.312v.494h-.54v-.2a.092.092,0,0,0-.1-.1h-.628v.921h1.04v.508h-1.04v1.315h-.6Z" transform="translate(-84.065 -96.226)" fill="#fff"/>
      <path id="Контур_93" data-name="Контур 93" d="M167.367,97.762h.073v-.032c0-.32-.133-.444-.43-.444-.106,0-.312.028-.312.157v.123h-.545v-.247c0-.43.618-.481.842-.481.8,0,1.026.4,1.026.93v.871a.091.091,0,0,0,.1.1h.182v.491h-.526c-.214,0-.293-.12-.293-.257v-.1h-.008a.8.8,0,0,1-.724.412.713.713,0,0,1-.775-.7C165.978,97.8,166.986,97.762,167.367,97.762Zm-.459,1.077a.6.6,0,0,0,.536-.614V98.16h-.106c-.3,0-.783.047-.783.367A.321.321,0,0,0,166.908,98.838Z" transform="translate(-83.159 -95.975)" fill="#fff"/>
      <path id="Контур_94" data-name="Контур 94" d="M168.633,97.48a.089.089,0,0,0-.1-.1h-.183v-.5h.535c.207,0,.308.087.308.284v.138a.985.985,0,0,1-.01.147h.01a.814.814,0,0,1,.742-.6.714.714,0,0,1,.11.01v.573a1.061,1.061,0,0,0-.143-.01.662.662,0,0,0-.636.491,1.248,1.248,0,0,0-.051.38v.926h-.581Z" transform="translate(-82.185 -95.969)" fill="#fff"/>
      <path id="Контур_95" data-name="Контур 95" d="M170.559,97.487a.089.089,0,0,0-.1-.1h-.183v-.5h.54c.207,0,.308.1.308.261v.069c0,.051,0,.1,0,.1h.008a.871.871,0,0,1,.756-.485.642.642,0,0,1,.677.481h.01a.915.915,0,0,1,.8-.481c.49,0,.765.275.765.889v.912a.091.091,0,0,0,.1.1h.183v.491h-.555c-.214,0-.306-.092-.306-.312V97.835c0-.265-.055-.467-.322-.467a.622.622,0,0,0-.563.536,1.226,1.226,0,0,0-.032.3v1.026h-.581V97.835c0-.253-.041-.467-.316-.467a.625.625,0,0,0-.567.54,1.471,1.471,0,0,0-.032.294v1.026h-.581Z" transform="translate(-81.393 -95.975)" fill="#fff"/>
      <path id="Контур_96" data-name="Контур 96" d="M174.238,98.486a1.048,1.048,0,0,0,.7.343c.175,0,.312-.073.312-.229,0-.33-1.228-.325-1.228-1.081,0-.467.422-.683.9-.683.32,0,.82.106.82.485v.243h-.509V97.45c0-.11-.169-.165-.3-.165-.2,0-.343.073-.343.212,0,.365,1.238.294,1.238,1.071,0,.44-.389.715-.9.715a1.281,1.281,0,0,1-.971-.418Z" transform="translate(-79.877 -95.975)" fill="#fff"/>
    </g>
    <path id="Контур_97" data-name="Контур 97" d="M92.525,60.665l.766-1.882a17.976,17.976,0,0,1,1.192,2.633,16.63,16.63,0,0,1,1.022,4.6c.007.1-.1.306.157.285.107.192-.025.33-.119.467a12.012,12.012,0,0,1-2.568,2.88c-.4.31-.579.274-.744-.219-.425-1.276-.773-2.574-1.156-3.862-.068-.231-.157-.457-.213-.69-.089-.358-.275-.436-.588-.267-.217-.126-.253-.36-.325-.566-.247-.713-.456-1.438-.758-2.132a23.422,23.422,0,0,1-.929-2.294c0-.148.042-.295.2-.312.209-.021.284.162.364.315a36.012,36.012,0,0,1,1.6,3.356,3.134,3.134,0,0,0,.272.587c.2-.09.267-.275.361-.425.4-.642.741-1.324,1.081-2C92.242,60.955,92.305,60.747,92.525,60.665Z" transform="translate(3.845 2.025)" fill="#4d9c23"/>
    <path id="Контур_98" data-name="Контур 98" d="M89.732,63.045l.354-.492a13.766,13.766,0,0,1,.9,2.613c.3.9.556,1.806.81,2.718.1.374.183.387.5.135a13.94,13.94,0,0,0,2.623-2.955,2.925,2.925,0,0,0,.168-.315l.7-1.329a29.183,29.183,0,0,1,.233,3.854,26.86,26.86,0,0,1-.32,3.641c.1.123.027.233-.047.32A14.325,14.325,0,0,1,94.078,72.9a.68.68,0,0,1-.415.178c-.337-.092-.418-.391-.516-.662-.394-1.089-.769-2.186-1.109-3.292-.111-.363-.265-.543-.655-.4-.306-.1-.278-.391-.354-.621-.3-1.078-.579-2.166-.9-3.238a7.423,7.423,0,0,0-.293-.882C89.8,63.671,89.554,63.38,89.732,63.045Z" transform="translate(4.422 3.574)" fill="#267f27"/>
    <path id="Контур_99" data-name="Контур 99" d="M92.6,68.121l.191.632a8.815,8.815,0,0,1,.573,2.084,1.353,1.353,0,0,1,.1.906c-.373.292-.528.044-.624-.271-.195-.643-.374-1.291-.528-1.943a.715.715,0,0,0-.658-.611,11.814,11.814,0,0,1-2.687-.72c-.179-.075-.422-.071-.487-.323.059-.243-.144-.368-.253-.525A12.461,12.461,0,0,1,86.172,62.4c.38.061.641.326.981.341a.709.709,0,0,1,.494.086,8.9,8.9,0,0,0,2.465.467.862.862,0,0,1,.738.284,2.355,2.355,0,0,1,.193.5c.343,1.175.714,2.344,1.019,3.531C92.137,67.905,92.235,68.142,92.6,68.121Z" transform="translate(2.985 3.512)" fill="#60ab22"/>
    <path id="Контур_100" data-name="Контур 100" d="M92.945,61.856a19.14,19.14,0,0,1-1.827,3.269c-.312-.718-.579-1.374-.878-2.015-.375-.806-.773-1.6-1.168-2.4-.109-.219-.22-.179-.309.024-.336-.117-.341-.481-.532-.707a1.167,1.167,0,0,1-.065-.15,1.715,1.715,0,0,0-.3-.563,1.785,1.785,0,0,1-.188-.356,3.529,3.529,0,0,0-.358-.682c-.061-.124-.143-.367,0-.468s.278.1.365.209a4.643,4.643,0,0,1,.659,1.044,1.96,1.96,0,0,0,.528.766c.167-.676.27-1.3.4-1.918a1.3,1.3,0,0,1,.244-.67l.065-1.359a7.9,7.9,0,0,1,1.1,1.228,11.764,11.764,0,0,1,2.169,4.562A.74.74,0,0,0,92.945,61.856Z" transform="translate(3.426 0.834)" fill="#73b81e"/>
    <path id="Контур_101" data-name="Контур 101" d="M91.067,65.159c-.377-.336-.854-.192-1.283-.25a7.375,7.375,0,0,1-2.324-.632,12.913,12.913,0,0,1-2.035-5.6,4.947,4.947,0,0,1,1.112.43.36.36,0,0,1,.248-.038,19.37,19.37,0,0,1,2.553.858,10.526,10.526,0,0,1,.917,2.148c.294.835.546,1.683.809,2.53C91.119,64.778,91.27,64.971,91.067,65.159Z" transform="translate(2.678 1.979)" fill="#86c21f"/>
    <path id="Контур_102" data-name="Контур 102" d="M102.835,67.333l1.257-.679c.124.151.028.279,0,.4a13.479,13.479,0,0,1-2.317,4.964c-.041.054-.1.093-.061.171-.032.14-.147.186-.262.219a7.64,7.64,0,0,1-3.25.323.244.244,0,0,1-.111-.109.574.574,0,0,1,.092-.446c.645-1.064,1.088-2.228,1.643-3.337.12-.24-.038-.3-.219-.35-.144-.278.064-.491.145-.722.119-.34.281-.665.4-1,.229-.624.442-1.252.622-1.889.051-.181.1-.368.3-.439.463.076.381.437.334.722a11.076,11.076,0,0,1-.628,2.134c-.09.24-.214.468-.3.756a11.279,11.279,0,0,0,1.757-.618C102.437,67.355,102.617,67.235,102.835,67.333Z" transform="translate(7.878 4.349)" fill="#4d9c23"/>
    <path id="Контур_103" data-name="Контур 103" d="M88.12,66.434a13.483,13.483,0,0,0,3.354.94.6.6,0,0,1,.569.533c.171.717.389,1.422.571,2.136.065.253.164.374.426.236.22.064.262.258.3.437.116.583.312,1.146.429,1.729.03.336.222.648.155,1-.346.2-.487-.056-.556-.3a.828.828,0,0,0-.792-.618,6.908,6.908,0,0,1-1.257-.3c-.124-.042-.285-.051-.271-.248a19.1,19.1,0,0,1-2.848-3.72,18.016,18.016,0,0,1-1.15-2.349Z" transform="translate(3.346 4.954)" fill="#398c25"/>
    <path id="Контур_104" data-name="Контур 104" d="M92.518,83.432a15.656,15.656,0,0,1-4.5,2.945c-.021-.255.238-.323.254-.518a17.911,17.911,0,0,0,.8-1.843c.054-.227.236-.443-.217-.557-.3-.075-.021-.315.1-.459,1.116-.658,2.215-1.338,3.284-2.067a11.911,11.911,0,0,0,1.033-.635c-.11.071-.275.179-.439.291a.437.437,0,0,1-.528.021,10.433,10.433,0,0,1-1.139-.775l-.4-.135a13.214,13.214,0,0,1,3.669-1.5,9.474,9.474,0,0,1,3.109-.364,1.049,1.049,0,0,1-.38.341c-1.659.924-3.119,2.151-4.788,3.114C93.077,81.542,93.131,82.819,92.518,83.432Z" transform="translate(3.743 9.847)" fill="#267e26"/>
    <path id="Контур_105" data-name="Контур 105" d="M90.311,70.37a6.255,6.255,0,0,0,1.774.456.667.667,0,0,1,.629.552c.055.234.093.5.437.46.2.058.24.238.286.4.267.91.621,1.794.816,2.729a3.555,3.555,0,0,0,.847,1.7c.432.464.676,1.043,1.064,1.528a.5.5,0,0,1,.13.433,11.831,11.831,0,0,1-3.356-2.7,26.048,26.048,0,0,1-3.948-5.738,3.914,3.914,0,0,1-.151-.377A8.638,8.638,0,0,0,90.311,70.37Z" transform="translate(4.082 6.561)" fill="#177026"/>
    <path id="Контур_106" data-name="Контур 106" d="M89.445,79.777l.442-.34a16.616,16.616,0,0,1-6.639-1.113l.762-.165a6.119,6.119,0,0,1,1.381-.676,4.762,4.762,0,0,0,1.524-1.122,3.013,3.013,0,0,0-.868-.315,12.493,12.493,0,0,1-2.4-.929c-.2-.1-.48-.217-.219-.531a.578.578,0,0,1,.452.037c.794.356,1.623.621,2.447.9.406.219.933.135,1.283.5.048.247.27.24.442.294,1.008.313,2.021.605,3.031.907.653.2.741.418.35.951a9.562,9.562,0,0,1-1.493,1.51C89.81,79.8,89.646,79.963,89.445,79.777Z" transform="translate(1.783 8.508)" fill="#267f27"/>
    <path id="Контур_107" data-name="Контур 107" d="M87.778,77.055l-1.257-.413a.871.871,0,0,0-.5-.329,18.648,18.648,0,0,1-1.889-.669c-.171-.065-.353-.113-.436-.3a15.426,15.426,0,0,0-.629-2.211.424.424,0,0,1,.01-.349c-.109-.192-.268-.512-.374-.7,0,0,.319.065.436.092a14.441,14.441,0,0,1,4.125,1.554c.126.072.234.219.413.147A3.959,3.959,0,0,1,88.05,75.6c.082,1,.071.993,1.043,1.232.277.068.756.038.467.587A2.821,2.821,0,0,1,87.778,77.055Z" transform="translate(1.557 7.491)" fill="#60ab22"/>
    <path id="Контур_108" data-name="Контур 108" d="M96.35,69.624a9.977,9.977,0,0,1,1.377-4.386l.286.6a22.319,22.319,0,0,0,1.762,2.083.557.557,0,0,1,.068.631.779.779,0,0,0-.049.646c.048.593-.365,1.013-.579,1.506-.148.344-.347.667-.49,1.017a.839.839,0,0,1-.289.334.459.459,0,0,1-.574.028A3.992,3.992,0,0,1,96.35,69.624Z" transform="translate(7.17 4.678)" fill="#60ab22"/>
    <path id="Контур_109" data-name="Контур 109" d="M95.109,78.511c-.519-.588-.848-1.307-1.352-1.916a4.6,4.6,0,0,1-.923-2.136,22,22,0,0,0-.868-2.739q-.123-.474-.247-.948A1.221,1.221,0,0,1,92.6,70.1c.3.037.406.288.532.508.111.195.185.408.308.6.367.557.708.619,1.229.219.15-.114.285-.257.5-.2a23.466,23.466,0,0,0-.349,4.674,8.177,8.177,0,0,0,.4,2.416C95.289,78.492,95.277,78.5,95.109,78.511Z" transform="translate(5.266 6.679)" fill="#0e4a1b"/>
    <path id="Контур_110" data-name="Контур 110" d="M100.328,72.746l1.061-.247a5.516,5.516,0,0,1-1.257,1.38c-.814.718-1.755,1.271-2.529,2.046a10.594,10.594,0,0,0-2.34,3.031c-.03.065-.018.24-.169.169-.048-.021-.047-.151-.068-.231a9.216,9.216,0,0,1,1.291-5.032c.079-.134.167-.262.24-.4.408-.766.408-.766,1.259-.643a8.322,8.322,0,0,0,1.747-.09A1.687,1.687,0,0,1,100.328,72.746Z" transform="translate(6.624 7.663)" fill="#0e4a1b"/>
    <path id="Контур_111" data-name="Контур 111" d="M99.541,73.927a9.24,9.24,0,0,1-2.516.188c-.137-.113-.088-.254-.037-.378.418-1.02.893-2.015,1.381-3,.054-.109.124-.212.274-.191a10.083,10.083,0,0,0,3.536-.484l1.139-.432a19.885,19.885,0,0,1-1.8,2.375C100.921,72.71,100.2,73.285,99.541,73.927Z" transform="translate(7.41 6.483)" fill="#267e26"/>
    <path id="Контур_112" data-name="Контур 112" d="M99.239,70.335a.5.5,0,0,1-.068-.656c.236-.354.1-.59-.189-.866a5.235,5.235,0,0,1-1.453-1.944c.222-.08.138-.289.167-.436a10.216,10.216,0,0,1,1.555-3.706c.251.23.292.55.457.8a1.243,1.243,0,0,1,.615.717,5.874,5.874,0,0,0,.539.861,2.516,2.516,0,0,1-.3,1.475,1.358,1.358,0,0,0-.083.938l-.642,1.667A1.5,1.5,0,0,1,99.239,70.335Z" transform="translate(7.654 3.646)" fill="#87c31f"/>
    <path id="Контур_113" data-name="Контур 113" d="M84.413,74.941c-.217.223-.018.272.141.356a18.075,18.075,0,0,0,2.99,1.122c.186.061.483-.016.533.213.044.2-.254.237-.381.37a6.159,6.159,0,0,1-2.773,1.483c.117-.286-.165-.213-.26-.251a11.536,11.536,0,0,1-3.392-2.117,3.515,3.515,0,0,1-.25-.275c.217-.123.42-.037.618-.045a1.2,1.2,0,0,1,.579-.182,3.322,3.322,0,0,0,1.538-.509c-.343-.332-.766-.5-1.1-.789-.158-.138-.477-.226-.272-.555A5.541,5.541,0,0,1,84.413,74.941Z" transform="translate(0.868 8.182)" fill="#4d9c23"/>
    <path id="Контур_114" data-name="Контур 114" d="M99.585,70.341a21.682,21.682,0,0,0-1.619,3.571c-.6-.191-.859.078-1.188.611a10.818,10.818,0,0,0-1.523,5.162.6.6,0,0,1-.075.188,5.617,5.617,0,0,1-.425-1.747,17.375,17.375,0,0,1,.59-6.856l.546.995c.353.14.444.509.667.763.207.233.3.288.577-.007a13.055,13.055,0,0,0,1.54-2.485A.914.914,0,0,1,99,70.147a.488.488,0,0,1,.519.111Z" transform="translate(6.469 6.684)" fill="#176f26"/>
    <path id="Контур_115" data-name="Контур 115" d="M89.236,74.591l-.281-.421c.1-.095.183-.052.26-.032A15.8,15.8,0,0,1,96.4,78.116c.085.083.168.172.246.264.041.045.107.116.007.151-.054.02-.131-.023-.2-.037-.842-.24-1.657-.567-2.516-.746a4.211,4.211,0,0,0-1.727-.137,3.551,3.551,0,0,1-1.321-.178,11.621,11.621,0,0,0-1.321-.222c-.1-.035-.2-.073-.195-.2a1.286,1.286,0,0,0,.123-1.123A3.787,3.787,0,0,1,89.236,74.591Z" transform="translate(4.129 8.326)" fill="#267f27"/>
    <path id="Контур_116" data-name="Контур 116" d="M90.407,75.065a8.188,8.188,0,0,1,.485,1.723.594.594,0,0,1-.332.727.245.245,0,0,1-.272.093c-.655-.1-1.305-.237-1.952-.391a.271.271,0,0,1-.224-.185c.135-.237.035-.333-.2-.391-.449-.107-1.06-.02-1.3-.354-.217-.3-.058-.858-.1-1.3-.052-.494-.15-.984-.229-1.476l-.165-.555a16.133,16.133,0,0,1,2.1.954c.588.313,1.16.656,1.743.981C90.091,74.972,90.207,75.134,90.407,75.065Z" transform="translate(2.958 7.852)" fill="#398c25"/>
    <path id="Контур_117" data-name="Контур 117" d="M90.9,58.04c-.162.861-.323,1.722-.488,2.581-.018.1-.016.224-.138.251s-.174-.1-.222-.179c-.308-.514-.605-1.033-.912-1.548-.085-.144-.183-.279-.349-.526a1.127,1.127,0,0,0,.363,1.072c-.32-.049-.423-.329-.564-.553a14.743,14.743,0,0,0-2.55-3.206A9.3,9.3,0,0,0,84.3,54.5c-.174-.116-.5-.193-.381-.543a13.963,13.963,0,0,1,6.547,3.778C90.58,57.857,90.667,58.058,90.9,58.04Z" transform="translate(2.048 0.039)" fill="#99cd1f"/>
    <path id="Контур_118" data-name="Контур 118" d="M105.563,75.59a1.078,1.078,0,0,1,.6-.044,14.083,14.083,0,0,1-4.506,2.465c-.1.031-.188.079-.281.119-.227.179-.426.013-.627-.059a3.711,3.711,0,0,1-1.036-.576c-.406-.313-.411-.463.032-.7a1.406,1.406,0,0,0,.826-.986c.611-.481,1.346-.765,1.96-1.242a20.042,20.042,0,0,0,1.734-1.219,4.859,4.859,0,0,1,.724-.533c.154-.069.333-.207.467-.035.152.2-.021.371-.158.487a13.316,13.316,0,0,1-1.414,1.132c-.254.162-.676.322-.607.625s.522.246.816.322a4.644,4.644,0,0,0,.873.1A.981.981,0,0,1,105.563,75.59Z" transform="translate(8.429 7.743)" fill="#267e26"/>
    <path id="Контур_119" data-name="Контур 119" d="M98.739,71.143a2.948,2.948,0,0,0-.667,1.1,18.5,18.5,0,0,1-1.363,2.148c-.1.2-.191.1-.315,0a4.555,4.555,0,0,1-.861-1.154,14.959,14.959,0,0,1,.611-5.107c.03-.1.062-.192.117-.358l.43.818a8.188,8.188,0,0,0,1.41,2.2.575.575,0,0,0,.827.038C99.06,70.945,98.824,71.057,98.739,71.143Z" transform="translate(6.828 5.717)" fill="#398c25"/>
    <path id="Контур_120" data-name="Контур 120" d="M102.183,67.985a19.532,19.532,0,0,1-2.523.921,1.726,1.726,0,0,1,.248-.761,12.724,12.724,0,0,0,.73-2.349c.047-.23.157-.524-.207-.639-.137-.109-.093-.267-.109-.408a4.874,4.874,0,0,1,.491-1.607c.251.051.247.265.26.443a2.771,2.771,0,0,1-.086,1.065,6.762,6.762,0,0,1,1.5-1.084l.694-.717a6.67,6.67,0,0,1-.047,2.059,8.35,8.35,0,0,1-.852,2.75C102.231,67.762,102.132,67.85,102.183,67.985Z" transform="translate(8.53 3.697)" fill="#73b81e"/>
    <path id="Контур_121" data-name="Контур 121" d="M102.079,75c.222.591-.308.717-.624.879-.492.25-.478.358-.024.642a5.023,5.023,0,0,0,1.47.665l.886.219a2.408,2.408,0,0,1-1.175.638,9.978,9.978,0,0,1-3.2.4c-.686.01-1.372.024-2.057.021a7.111,7.111,0,0,0-1.654.255,1.525,1.525,0,0,1,1.033-1.024,14.465,14.465,0,0,0,2.145-1.12c.951-.491,1.919-.95,2.836-1.506A.42.42,0,0,1,102.079,75Z" transform="translate(6.904 8.685)" fill="#0e4a1b"/>
    <path id="Контур_122" data-name="Контур 122" d="M84.1,53.991c.248.511.82.621,1.211.96a7.279,7.279,0,0,1,.879.84,19.5,19.5,0,0,1,3.145,4.3,1.845,1.845,0,0,0,.264.559,1.627,1.627,0,0,1,.093.148c.116.209.2.432.306.646.069.14.207.295.016.452l-2.663-.814a.236.236,0,0,0,.031-.244c-.778-2.585-1.525-5.19-3.921-6.978A2.027,2.027,0,0,1,84.1,53.991Z" transform="translate(1.869 0)" fill="#acd818"/>
    <path id="Контур_123" data-name="Контур 123" d="M84.484,69.252c2.8,1.181,5.547,2.426,7.264,5.307C88.473,73.824,86.349,71.717,84.484,69.252Z" transform="translate(2.291 6.328)" fill="#0e4a1b"/>
    <path id="Контур_124" data-name="Контур 124" d="M83.25,75.109c.174.508.71.593,1.055.9.175.154.543.169.525.429s-.377.255-.58.344a4.755,4.755,0,0,1-1.75.333c-3.234-3.574-3.025-4.263-3.573-6.539.111-.086.254.116.323.193a4.365,4.365,0,0,1,.48.61A13.147,13.147,0,0,0,82.959,74.7C83.086,74.812,83.254,74.9,83.25,75.109Z" transform="translate(0.007 6.864)" fill="#73b81e"/>
    <path id="Контур_125" data-name="Контур 125" d="M89.468,76.286a1.209,1.209,0,0,1,.906.08c1.192.4,2.469.025,3.658.426a8.815,8.815,0,0,1,2.3.833,13.681,13.681,0,0,0-4.192,1.115,15.224,15.224,0,0,1-2.33.7c-.152-.224.063-.329.161-.464a3.591,3.591,0,0,1,.332-.323c.581-.618.48-1.1-.3-1.4-.128-.049-.261-.087-.387-.145C89.177,76.9,89.142,76.718,89.468,76.286Z" transform="translate(4.251 9.194)" fill="#0e4a1b"/>
    <path id="Контур_126" data-name="Контур 126" d="M91.376,83.427a3.44,3.44,0,0,0,.253-1.051c.13-.8.076-.854-.835-.957,1.96-1.194,3.649-2.6,5.612-3.591.062-.025.107.03.073.058a15.121,15.121,0,0,0-2.489,3.5,10.329,10.329,0,0,1-2.056,2.478,2.073,2.073,0,0,1-.816.452C91.136,83.985,91.386,83.742,91.376,83.427Z" transform="translate(4.885 9.851)" fill="#0e4a1b"/>
    <path id="Контур_127" data-name="Контур 127" d="M82.913,74.9A13.583,13.583,0,0,1,79.8,71.826c-.248-.36-.4-.8-.8-1.044-.093-.1-.086-.4-.086-.4a14.38,14.38,0,0,0,5.719,3.1,9.371,9.371,0,0,1,.713,2.567c-.437.12-.715-.23-1.06-.373C83.8,75.475,83.394,75.117,82.913,74.9Z" transform="translate(0 6.792)" fill="#87c31f"/>
    <path id="Контур_128" data-name="Контур 128" d="M93.586,80.123c-1.133.8-2.323,1.506-3.511,2.215a.95.95,0,0,1-.127-.039,14.907,14.907,0,0,0-1.936.824,1.308,1.308,0,0,1-.741.171c-.518-.375-1.123-.607-1.621-1.012l-.484-.2a12.791,12.791,0,0,1,3.38-1.542c.157-.047.388.023.453-.223.435-.073.627.3.893.511.82.639.816.663,1.679.072a11.631,11.631,0,0,1,1.532-.869C93.266,79.957,93.484,79.782,93.586,80.123Z" transform="translate(2.572 10.714)" fill="#60ac23"/>
    <path id="Контур_129" data-name="Контур 129" d="M90.7,76.54c-.23.45-.049.655.4.8,1.182.375,1.278.975.337,1.841-.155.144-.356.277-.394.519a6.093,6.093,0,0,1-3.485.025l.648-.38a5.6,5.6,0,0,0,2.07-1.988c.183-.272-.1-.33-.251-.377-1.132-.343-2.27-.665-3.4-1-.171-.051-.522.011-.308-.371l1.736.337a19,19,0,0,0,2.448.483Z" transform="translate(3.018 8.94)" fill="#0e5f23"/>
    <path id="Контур_130" data-name="Контур 130" d="M104.538,76.393a6.12,6.12,0,0,1-2.382-.351c-.268-.1-.351-.127-.1-.381.563-.566,1.307-.89,1.861-1.462.117-.121.285-.193.373-.35.04-.069.159-.133.076-.214s-.183.03-.275.056c-.095-.22.089-.306.2-.421a13.509,13.509,0,0,0,1.793-2.056c.158-.175.234-.442.521-.476.222.176.035.339-.037.487a9.746,9.746,0,0,1-1.3,1.84,1.221,1.221,0,0,0-.316.428c.55.213,1.075-.123,1.609-.065l.542-.13a9.721,9.721,0,0,1-1.864,2.393C105,75.922,104.69,76.079,104.538,76.393Z" transform="translate(9.453 6.94)" fill="#4d9c23"/>
    <path id="Контур_131" data-name="Контур 131" d="M101.149,73.378a16.2,16.2,0,0,1,2.862-2.357c.161-.1.313-.206.49-.323.133.21.023.361-.014.516a5.906,5.906,0,0,1-.075,2.269,7.7,7.7,0,0,1-1.309,1.053,9.252,9.252,0,0,1-1.483.921c-.092.011-.189,0-.222-.09A3.075,3.075,0,0,1,101.149,73.378Z" transform="translate(9.109 6.923)" fill="#60ab22"/>
    <path id="Контур_132" data-name="Контур 132" d="M94.894,72.241a2.034,2.034,0,0,0-.443.344.783.783,0,0,1-1.3-.1c-.313-.412-.416-.941-.758-1.333a.21.21,0,0,1,.114-.2,9.89,9.89,0,0,0,2.076-2.127l.893-1.181A12.649,12.649,0,0,1,94.894,72.241Z" transform="translate(5.542 5.666)" fill="#0e5f23"/>
    <path id="Контур_133" data-name="Контур 133" d="M102.44,72.717a12.329,12.329,0,0,0,.327,2.056c-.295.591-.933.718-1.422,1.047-.178.121-.436.152-.44.443a24.763,24.763,0,0,1-2.85,1.524c-.254-.186-.063-.323.066-.439a2.582,2.582,0,0,1,.794-.476.637.637,0,0,0,.443-.725,3.447,3.447,0,0,1,0-.672c.017-.181,0-.391.236-.464A22.6,22.6,0,0,1,102.35,72.3C102.481,72.448,102.429,72.589,102.44,72.717Z" transform="translate(7.819 7.583)" fill="#398c25"/>
    <path id="Контур_134" data-name="Контур 134" d="M89.856,81.573l.059.086c-.169.292-.017.237.155.14.267-.15.308-.018.26.206a4.983,4.983,0,0,1-1.05,2.307,11.52,11.52,0,0,1-3.367.77l-.358.007.315-.268a3.39,3.39,0,0,1,.485-.706,1.8,1.8,0,0,0,.556-1.335C87.923,82.452,88.844,81.9,89.856,81.573Z" transform="translate(2.732 11.393)" fill="#4d9c23"/>
    <path id="Контур_135" data-name="Контур 135" d="M100.58,74.353a1.807,1.807,0,0,0-.085,1.15.7.7,0,0,1-.574.861,3.724,3.724,0,0,0-.79.464.2.2,0,0,0-.092.3,8.592,8.592,0,0,1-2.177,1.126,2.926,2.926,0,0,0-1.087.906l-.241.161a13.117,13.117,0,0,1,5.086-5.416Z" transform="translate(6.834 8.242)" fill="#177026"/>
    <path id="Контур_136" data-name="Контур 136" d="M92.54,80.4c-.145-.174-.267-.042-.4.021a14.325,14.325,0,0,0-1.942,1.166c-.4.27-.754.354-1.143-.078a9.41,9.41,0,0,0-1.1-.912c-.092-.044-.195-.072-.241-.2a29.2,29.2,0,0,1,3.583-1.157,1.6,1.6,0,0,1,.933.49.625.625,0,0,0,.938.016c.2-.158.4-.374.768-.275Z" transform="translate(3.618 10.436)" fill="#398c25"/>
    <path id="Контур_137" data-name="Контур 137" d="M102.306,65.159a14.341,14.341,0,0,1-1.6,1.3c.03-.436.079-.787.066-1.137-.006-.181.076-.426-.175-.54-.206-.119-.1-.3-.089-.459.045-.5.08-.989.078-1.487a13.468,13.468,0,0,0-.453-3.388,2.52,2.52,0,0,1-.02-.471,11.571,11.571,0,0,1,2.11,5.729A2.507,2.507,0,0,0,102.306,65.159Z" transform="translate(8.712 2.105)" fill="#99cd1f"/>
    <path id="Контур_138" data-name="Контур 138" d="M92.749,84c-.109-.008-.272.044-.147-.175.344-.6,1.034-1.108,1.113-1.688a4.588,4.588,0,0,1,.738-1.717,6.866,6.866,0,0,1,1.72-1.9c.145-.116.15-.11.21.078a5.572,5.572,0,0,0-.54,1.595,19.266,19.266,0,0,1-.508,2.052.466.466,0,0,1-.207.286c-.258.1-.319.343-.387.573a3.913,3.913,0,0,1-.275.721c-.083.158-.195.31-.391.285A6.24,6.24,0,0,1,92.749,84Z" transform="translate(5.61 10.109)" fill="#2f8425"/>
    <path id="Контур_139" data-name="Контур 139" d="M95.4,69.277c-.785-2.649-.021-4.943.986-7.205C96.693,64.513,96.8,66.93,95.4,69.277Z" transform="translate(6.647 3.377)" fill="#0e5f23"/>
    <path id="Контур_140" data-name="Контур 140" d="M95.883,79.113c.785.968,1.573,1.933,2.354,2.905.27.336.521.687.778,1.033a.985.985,0,0,1,.189.3c.072.289-.494.813-1.031.961-.413.114-.755.058-.9-.415-.284-.9-.57-1.8-.851-2.706-.21-.679-.413-1.359-.621-2.039Z" transform="translate(6.942 10.382)" fill="#0e4a1b"/>
    <path id="Контур_141" data-name="Контур 141" d="M83,80.931c2.193-1.119,4.428-2.1,7.115-1.7A11.077,11.077,0,0,1,83,80.931Z" transform="translate(1.68 10.394)" fill="#0e4a1b"/>
    <path id="Контур_142" data-name="Контур 142" d="M100.553,59.312a4.972,4.972,0,0,1,.533,2.366,7.609,7.609,0,0,1,.037,1.017,17.483,17.483,0,0,1-.634,3.492c-.075.168-.031.406-.275.477-.552-.468-.7-1.2-1.142-1.741A10.126,10.126,0,0,0,100.553,59.312Z" transform="translate(8.289 2.242)" fill="#acd818"/>
    <path id="Контур_143" data-name="Контур 143" d="M94.407,86.125c-.552.1-.912.562-1.436.735a8.5,8.5,0,0,1-2.287.507,7.445,7.445,0,0,0,1.789-2.352c.056-.1.119-.4-.056-.543.24-.33.721-.079,1.047-.111a.989.989,0,0,0,.876-.621c.159-.346.289-.706.483-1.034.107-.185.216-.388.466-.158a4.9,4.9,0,0,1-.979,2.134c-.12.12-.272.207-.329.347.107-.111.226-.316.433-.085A1.293,1.293,0,0,1,94.407,86.125Z" transform="translate(4.84 11.752)" fill="#7fbf1d"/>
    <path id="Контур_144" data-name="Контур 144" d="M88.321,82.563a.4.4,0,0,1,.065.57A6.318,6.318,0,0,1,87.3,84.462c.038-.271-.169-.152-.265-.148a8.733,8.733,0,0,1-4.826-1.4.427.427,0,0,1-.135-.183c0-.03.155-.011.237-.013a12.36,12.36,0,0,0,3.7.186c.629-.078,1.242-.236,1.86-.367C88.015,82.5,88.185,82.341,88.321,82.563Z" transform="translate(1.301 11.753)" fill="#72b81e"/>
    <path id="Контур_145" data-name="Контур 145" d="M105.744,74.34a2.963,2.963,0,0,1-1.5.262c-.116-.007-.272,0-.326-.119s.087-.2.165-.291a8.7,8.7,0,0,0,1.744-2.533c-.195-.261.024-.452.133-.642a10.337,10.337,0,0,0,.92-2.272c.25-.3.244-.374.261.231a10.493,10.493,0,0,1-.457,3.308A11.155,11.155,0,0,1,105.744,74.34Z" transform="translate(10.274 6.028)" fill="#73b81e"/>
    <path id="Контур_146" data-name="Контур 146" d="M107.072,68.681a4.19,4.19,0,0,1-.629,2c-.127.31-.415.546-.423.912-.195.13-.271.351-.411.525-.244.062-.315.292-.44.464a12.583,12.583,0,0,1-1.5,1.538.193.193,0,0,1-.193.03,8.513,8.513,0,0,1,.045-2.11c.485-.1.745-.522,1.1-.8A11.076,11.076,0,0,0,107.072,68.681Z" transform="translate(10.079 6.094)" fill="#87c31f"/>
    <path id="Контур_147" data-name="Контур 147" d="M85.9,83.356a7.315,7.315,0,0,1-3.656-.292,16.383,16.383,0,0,0,4.293-1.307c.109-.047.212-.109.318-.164a4.377,4.377,0,0,1,1.631.921c-.13.337-.473.316-.732.4A18.33,18.33,0,0,1,85.9,83.356Z" transform="translate(1.37 11.402)" fill="#87c31f"/>
    <path id="Контур_148" data-name="Контур 148" d="M94.507,82.408a11.825,11.825,0,0,0,.656-2.474,2.3,2.3,0,0,1,.641-1.377,13.939,13.939,0,0,0,.416,2.718,4.05,4.05,0,0,1-.13,2.424c-.155-.085-.13-.246-.2-.347a5.767,5.767,0,0,0-.844-.95,13.99,13.99,0,0,0-.579,1.37c-.093.195-.127.511-.487.394A3.007,3.007,0,0,1,94.507,82.408Z" transform="translate(6.191 10.154)" fill="#0e4a1b"/>
    <path id="Контур_149" data-name="Контур 149" d="M106.061,67.66a14.307,14.307,0,0,1-4.892,5.213A13.433,13.433,0,0,1,106.061,67.66Z" transform="translate(9.151 5.674)" fill="#0e5f23"/>
    <path id="Контур_150" data-name="Контур 150" d="M94.309,83.064c.26.049.264-.181.319-.319.183-.461.358-.928.511-1.4.088-.271.154-.312.357-.08a2.176,2.176,0,0,1,.7,1.039c-.275-.059-.045.72-.953,2.747-.179.4-.093.439-.289.076a8.558,8.558,0,0,0-.532-1.374A11.6,11.6,0,0,1,93.667,85c-.117.13-.2.4-.461.165a11.242,11.242,0,0,0,1-2.05A.074.074,0,0,1,94.309,83.064Z" transform="translate(5.877 11.204)" fill="#267e26"/>
    <path id="Контур_151" data-name="Контур 151" d="M94.88,82.992l-.1.051c-.188-.123-.223.011-.286.15-.185.406-.4.8-.577,1.212a.834.834,0,0,1-.8.545,4.859,4.859,0,0,0-1.065.19c-.288.089-.277.137-.143-.155a8.293,8.293,0,0,1,.89-1.726c.09-.135.251-.233.253-.423a2.8,2.8,0,0,1,1.12-.014.4.4,0,0,0,.539-.31c.1-.309.23-.61.323-.921a.355.355,0,0,1,.356-.3Q95.135,82.139,94.88,82.992Z" transform="translate(5.307 11.275)" fill="#60ac23"/>
    <path id="Контур_152" data-name="Контур 152" d="M99.816,78.13a8.578,8.578,0,0,1,5.684-.382A8.037,8.037,0,0,1,99.816,78.13Z" transform="translate(8.594 9.691)" fill="#0e4a1b"/>
    <path id="Контур_153" data-name="Контур 153" d="M92.917,82.571A8.721,8.721,0,0,1,89.1,86.889,9.668,9.668,0,0,1,92.917,82.571Z" transform="translate(4.191 11.804)" fill="#0e4a1b"/>
    <path id="Контур_154" data-name="Контур 154" d="M101.174,78.937c.123.384.473.349.768.411a5.637,5.637,0,0,0,1.991.055,5.411,5.411,0,0,1-2.86,1.631c-.381.02-.557-.257-.728-.521-.114-.175-.025-.317.145-.412a.441.441,0,0,1,.137-.061c-.031-.025-.061,0-.092,0-.157,0-.268-.044-.257-.23C100.472,79.413,100.868,79.221,101.174,78.937Z" transform="translate(8.784 10.31)" fill="#7cbc1d"/>
    <path id="Контур_155" data-name="Контур 155" d="M98.784,81.115a1.748,1.748,0,0,1-1.246-.765,17.751,17.751,0,0,1-1.216-1.465c-.188-.248-.435-.429-.636-.658a.957.957,0,0,1,1.029.086c.343.188.684.375,1.043.531s.715.309,1.067.478c.344.217.83.192,1.057.611-.258.325-.535.076-.792.008-.538-.143-.552-.144-.449.38A3.776,3.776,0,0,0,98.784,81.115Z" transform="translate(6.896 9.97)" fill="#0e4a1b"/>
    <path id="Контур_156" data-name="Контур 156" d="M98,80.661a2.234,2.234,0,0,1-.162-.316c-.251-.739-.357-.8-.116-1.074.158-.176.615.095.927.213a.46.46,0,0,0,.446-.017c.332-.212.59.093.889.121.378.222.878.1,1.222.419-.052.284-.272.214-.447.193a5.919,5.919,0,0,1-.93-.2c.037.443.521.684.49,1.14.175.193.088.219-.11.168a7,7,0,0,1-2.2-.961C97.88,80.452,98.095,80.561,98,80.661Z" transform="translate(7.678 10.423)" fill="#2d8325"/>
    <path id="Контур_157" data-name="Контур 157" d="M93.366,84.506c.5-.13.581-.615.817-.964a6.986,6.986,0,0,0,.4-.828,3.444,3.444,0,0,1,.535,1.753A10.73,10.73,0,0,1,93.694,86.1c-.157.123-.2.12-.165-.086.013-.1.11-.921-.083-1.1-.306-.285-.316.371-.628.268A3.05,3.05,0,0,1,93.366,84.506Z" transform="translate(5.718 11.863)" fill="#4d9c23"/>
    <path id="Контур_158" data-name="Контур 158" d="M99.83,79.961c-.308.048-.536-.241-.842-.2q-.557-.254-1.115-.505c-.09-.286.121-.255.274-.238a2.171,2.171,0,0,1,.687.217.625.625,0,0,0,.916-.261,1.663,1.663,0,0,1,.381-.484.786.786,0,0,0,.6.265,4.207,4.207,0,0,1,1.442.363c-.092.5-.666.564-.865.967-.241.2-.484.014-.725,0S100.1,79.9,99.83,79.961Z" transform="translate(7.787 10.127)" fill="#62ad22"/>
    <path id="Контур_159" data-name="Контур 159" d="M100.424,78.588c-.047.444-.435.672-.651,1.009-.068.106-.189.014-.282-.017-.306-.1-.608-.223-.917-.316-.14-.042-.33-.2-.408.09q-.51-.222-1.023-.442c-.027-.159.071-.251.2-.213a1.07,1.07,0,0,0,1.1-.374.277.277,0,0,1,.241-.061.407.407,0,0,0,.332.169A5.645,5.645,0,0,1,100.424,78.588Z" transform="translate(7.494 10.031)" fill="#2d8325"/>
    <path id="Контур_160" data-name="Контур 160" d="M99.317,78.384c-.137.13-.264.27-.411.385-.248.2-.505.385-.84.167-.134-.087-.226-.034-.289.1-.467-.162-.864-.463-1.312-.655a1.05,1.05,0,0,0-.744-.092c-.113-.045-.209-.117-.011-.157A5.953,5.953,0,0,1,99.317,78.384Z" transform="translate(6.86 9.911)" fill="#187126"/>
    <path id="Контур_161" data-name="Контур 161" d="M99.714,80.952c-.192-.288-.391-.57-.569-.866a.438.438,0,0,1-.069-.339c.062-.128.216-.034.327-.016.289.051.576.116.864.169.111.02.248.079.288-.107.185-.192.35-.048.518.032-.174.165-.244.327-.007.5.174.128.337.268.507.4.3.206.037.2-.089.229A8.334,8.334,0,0,1,99.714,80.952Z" transform="translate(8.284 10.616)" fill="#4d9c23"/>
    <path id="Контур_162" data-name="Контур 162" d="M89.684,64.213q-.432-1.389-.861-2.778a1.539,1.539,0,0,1-.034-.244.639.639,0,0,1,.323-.219q.491,1.361.981,2.723l.195.864c-.093.167-.182.343-.406.145Z" transform="translate(4.061 2.924)" fill="#a7d336"/>
    <path id="Контур_163" data-name="Контур 163" d="M89.528,61.9c-.069.13-.113.3-.323.219-.375-.717-.529-1.532-.972-2.22-.061-.4-.363-.69-.454-1.074.076-.123.189-.1.3-.075a3.3,3.3,0,0,1,.463.825Q89.036,60.733,89.528,61.9Z" transform="translate(3.646 2.001)" fill="#c1de5e"/>
    <path id="Контур_164" data-name="Контур 164" d="M93.137,71.326a.216.216,0,0,1-.114.2l-.948.632c-.217-.734-.318-1.5-.6-2.217q-.307-1.484-.615-2.968c.588-.373.574-.368.794.3.388,1.19.792,2.373,1.2,3.556A2.89,2.89,0,0,0,93.137,71.326Z" transform="translate(4.912 5.29)" fill="#166121"/>
    <path id="Контур_165" data-name="Контур 165" d="M89.563,63.659c.176.065.278-.078.406-.145a27.569,27.569,0,0,1,1.019,3.408c.068.248.143.5.213.742-.2.131-.419.361-.538-.055C90.288,66.3,89.928,64.976,89.563,63.659Z" transform="translate(4.379 3.969)" fill="#8ec520"/>
    <path id="Контур_166" data-name="Контур 166" d="M89.061,60.184l-.3.075c-.021-.025-.179-.368-.274-.566a30.387,30.387,0,0,0-3.095-4.466,8.507,8.507,0,0,1,1.748,1.88c.494.666.933,1.372,1.4,2.06.069.12.31.573.478.931A.246.246,0,0,1,89.061,60.184Z" transform="translate(2.664 0.563)" fill="#dcec88"/>
    <path id="Контур_167" data-name="Контур 167" d="M100.055,64.671l.174-.488a.251.251,0,0,1,.272.058l.011.377-.825,2.3a.429.429,0,0,1-.169-.6C99.742,65.793,99.88,65.224,100.055,64.671Z" transform="translate(8.448 4.236)" fill="#abd63b"/>
    <path id="Контур_168" data-name="Контур 168" d="M100.155,67.3c-.123-.135-.285-.038-.428.02q-.3.578-.6,1.156c-.246.828-1.308,2.781-1.326,2.879a.676.676,0,0,0,.425.083l.147-.347h0a31.9,31.9,0,0,0,1.7-3.413C100.129,67.567,100.269,67.431,100.155,67.3Z" transform="translate(7.766 5.5)" fill="#398c25"/>
    <path id="Контур_169" data-name="Контур 169" d="M83.787,74.549c.682.226,1.362.453,2.043.674.2.065.346.159.289.4a13.773,13.773,0,0,1-2.437-.9C83.664,74.634,83.671,74.56,83.787,74.549Z" transform="translate(1.959 8.506)" fill="#87c31f"/>
    <path id="Контур_170" data-name="Контур 170" d="M84.579,74.947l-.1.175-.36-.107c-.652-.423-1.4-.684-2.024-1.15l-.344-.277c.274-.055.435.165.639.27a9.377,9.377,0,0,0,1.789.873C84.266,74.885,84.449,74.868,84.579,74.947Z" transform="translate(1.166 8.107)" fill="#b0d649"/>
    <path id="Контур_171" data-name="Контур 171" d="M100.092,76.1c-.456-.334.058-.4.169-.45a11,11,0,0,0,1.695-1.04q.79-.519,1.582-1.034c.246.083,1.252-.985,1.5-.879a41.631,41.631,0,0,1-4.69,3.244Z" transform="translate(8.632 7.743)" fill="#78b91e"/>
    <path id="Контур_172" data-name="Контур 172" d="M103.109,74.214c-.147.087-.3.172-.439.267s-.179.031-.19-.1a6.953,6.953,0,0,0,1.381-1.077,8.8,8.8,0,0,0,1.606-1.634c.059-.089.835-.981.952-.917a26.841,26.841,0,0,1-2.563,2.936Z" transform="translate(9.69 6.943)" fill="#c0dc60"/>
    <path id="Контур_173" data-name="Контур 173" d="M100.277,65.249,100,65.191a19.352,19.352,0,0,0,.605-3.157.437.437,0,0,1,.13-.325,16.1,16.1,0,0,1-.106,1.95A11.34,11.34,0,0,1,100.277,65.249Z" transform="translate(8.672 3.228)" fill="#c7e163"/>
    <path id="Контур_174" data-name="Контур 174" d="M84.833,83.417c.706-.212,1.411-.421,2.115-.639a4.576,4.576,0,0,0,.47-.2,15.216,15.216,0,0,0,2.575-1.084c.176-.073.175-.076.159.133a21.586,21.586,0,0,1-2.966,1.349A13.112,13.112,0,0,1,84.833,83.417Z" transform="translate(2.435 11.342)" fill="#a4d135"/>
    <path id="Контур_175" data-name="Контур 175" d="M100.994,79.934l-.518-.032a3.291,3.291,0,0,1-1.222-.322c.051-.271.212-.126.343-.089a4.494,4.494,0,0,0,1.133.214c.243.131.543-.02.841.2Z" transform="translate(8.363 10.508)" fill="#abd63f"/>
    <g id="Сгруппировать_33" data-name="Сгруппировать 33" transform="translate(101.654 91.553)">
      <path id="Контур_176" data-name="Контур 176" d="M109.547,85.362a2.558,2.558,0,0,1,1.755.071,1.959,1.959,0,0,1,.986,1.081,4.239,4.239,0,0,1,.271,1.559,8.59,8.59,0,0,1-.135,1.518A9.56,9.56,0,0,1,111.059,93a8.459,8.459,0,0,1-2.51,2.564,5.449,5.449,0,0,1-3.224.909,2.8,2.8,0,0,1-1.813-.756,3.474,3.474,0,0,1-.969-2.079,8.646,8.646,0,0,1,.337-3.473,9.328,9.328,0,0,1,1.074-2.458A6.432,6.432,0,0,1,105.6,85.9a3.019,3.019,0,0,1,1.985-.619c.031.008.062.079.095.213s.058.285.082.454l.059.419a.846.846,0,0,1,.011.106A3.7,3.7,0,0,1,109.547,85.362Zm-2.474,4.476a11.828,11.828,0,0,0-.508,1.761,4.786,4.786,0,0,0-.107,1.63c.064.457.279.7.651.721a1.528,1.528,0,0,0,1.057-.667,6.573,6.573,0,0,0,.921-1.566,7.656,7.656,0,0,0,.538-1.795,4.776,4.776,0,0,0,.052-1.288.785.785,0,0,0-.371-.684q-.26-.1-.621.43a3.051,3.051,0,0,0-.36,1.683v.059c0,.016-.006.024-.018.024a.206.206,0,0,1-.065-.024,1.284,1.284,0,0,1-.43-.6,2.293,2.293,0,0,1-.183-.779A3.91,3.91,0,0,0,107.073,89.838Z" transform="translate(-91.965 -78.651)" fill="#fff"/>
      <path id="Контур_177" data-name="Контур 177" d="M113.847,85.645a2.661,2.661,0,0,1,1.513,1.737q-.248,1.194-.662,2.67-.366,1.3-.662,2.54-.271,1.264.207.9a7.615,7.615,0,0,0,1.352-1.724q.874-1.359,1.82-3.089t1.617-3.207v-.013a.031.031,0,0,1,.013-.023,3.33,3.33,0,0,1,2.268.247,2.7,2.7,0,0,1,1.524,1.737q-.248,1.168-.638,2.575-.472,1.748-.773,3.3a4.388,4.388,0,0,0-.006,2.3,1.145,1.145,0,0,1,.087.213.093.093,0,0,1-.017.1.886.886,0,0,1-.119.076.1.1,0,0,0-.047.013,2.849,2.849,0,0,1-2.469.284,2.341,2.341,0,0,1-1.092-1.7,9.579,9.579,0,0,1-.1-2.835,19.6,19.6,0,0,1-1.654,2.3,9.193,9.193,0,0,1-1.873,1.737,3.338,3.338,0,0,1-1.978.638,2.012,2.012,0,0,1-1.771-1.305,7.231,7.231,0,0,1-.356-3.674,26.141,26.141,0,0,1,1.537-6.042A3.358,3.358,0,0,1,113.847,85.645Z" transform="translate(-88.888 -78.628)" fill="#fff"/>
      <path id="Контур_178" data-name="Контур 178" d="M123.394,91.624a1.047,1.047,0,0,1-.047.178c-.087.3-.19.708-.313,1.228a11.17,11.17,0,0,0-.254,1.531,1.794,1.794,0,0,0,.154,1.1,1.193,1.193,0,0,0,.095.107.284.284,0,0,1,.052.065c.013.02.008.042-.011.071a.576.576,0,0,1-.124.111,2.859,2.859,0,0,1-1.305.491,2.353,2.353,0,0,1-1.359-.224,1.916,1.916,0,0,1-.927-1.129,9.106,9.106,0,0,1-.206-3.673,26.343,26.343,0,0,1,1.53-6.085,3.268,3.268,0,0,1,2.208.219,2.769,2.769,0,0,1,1.548,1.637,10.075,10.075,0,0,1,1.808-1.819V85.41c.007,0,.011,0,.011-.013a3.335,3.335,0,0,1,2.269.248,2.7,2.7,0,0,1,1.523,1.748,12.9,12.9,0,0,0-.933,2.67,2.231,2.231,0,0,0,.143,1.524,1.787,1.787,0,0,1-1.661.219,2.633,2.633,0,0,1-1.335-1.288,5.126,5.126,0,0,1-.525-2.451A38.469,38.469,0,0,0,123.394,91.624Z" transform="translate(-85.145 -78.629)" fill="#fff"/>
      <path id="Контур_179" data-name="Контур 179" d="M132.091,88.826a7.907,7.907,0,0,0-.809,2.186,4.963,4.963,0,0,0-.041,2.238,1.433,1.433,0,0,0,1.235,1.17,5.114,5.114,0,0,0,3.03-1.027q.485-.165.5.265a1.837,1.837,0,0,1-.549,1.1,4.82,4.82,0,0,1-1.778,1.2,8.161,8.161,0,0,1-3.178.543,3.549,3.549,0,0,1-2.881-1.365,5.186,5.186,0,0,1-.993-3.126,7.117,7.117,0,0,1,.9-3.532,6.694,6.694,0,0,1,2.87-2.728,6.36,6.36,0,0,1,3.332-.651,3.772,3.772,0,0,1,2.416.9,2.128,2.128,0,0,1,.643,1.654,2.978,2.978,0,0,1-.627,1.654,2.345,2.345,0,0,1-1.411.914,1.947,1.947,0,0,1-1.707-.579c-.04-.04-.052-.075-.041-.106a.19.19,0,0,1,.065-.083,1.34,1.34,0,0,0,.4-.625,1.379,1.379,0,0,0,.059-.7.336.336,0,0,0-.349-.312Q132.624,87.887,132.091,88.826Z" transform="translate(-82.041 -78.72)" fill="#fff"/>
      <path id="Контур_180" data-name="Контур 180" d="M140.545,94.585a3.545,3.545,0,0,0,2.433-1.157c.332-.11.5-.023.508.265a1.827,1.827,0,0,1-.56,1.1,4.852,4.852,0,0,1-1.826,1.192,8.832,8.832,0,0,1-3.272.55A3.635,3.635,0,0,1,135,95.288a4.865,4.865,0,0,1-1.057-2.9,7.535,7.535,0,0,1,.632-3.419,6.674,6.674,0,0,1,2.232-2.8,5.85,5.85,0,0,1,3.751-1.034,3.385,3.385,0,0,1,2.469,1.1,3.08,3.08,0,0,1,.7,2.357,4.525,4.525,0,0,1-1.335,2.67,8.08,8.08,0,0,1-3.645,2.025A1.882,1.882,0,0,0,140.545,94.585Zm-.975-6.278a4.7,4.7,0,0,0-.868,1.671,5.034,5.034,0,0,0-.237,1.95A6.322,6.322,0,0,0,139.9,90.64a5.763,5.763,0,0,0,1.033-1.654q.307-.8-.224-1.1A.986.986,0,0,0,139.57,88.307Z" transform="translate(-79.036 -78.696)" fill="#fff"/>
      <path id="Контур_181" data-name="Контур 181" d="M152.2,81.142a2.745,2.745,0,0,1,1.548,1.654,8.617,8.617,0,0,1,1.795-1.524,3.019,3.019,0,0,1,1.878-.5,2.2,2.2,0,0,1,1.767,1.619,9.127,9.127,0,0,1,.4,3.61,19.386,19.386,0,0,1-.845,4.53,16.528,16.528,0,0,1-1.925,4.088,13.821,13.821,0,0,1-3.178,3.521,7.075,7.075,0,0,1-4.077,1.547,2.982,2.982,0,0,1-1.547-.36A2.821,2.821,0,0,1,146.868,98a.1.1,0,0,1,.017-.124.151.151,0,0,1,.137-.041,5.373,5.373,0,0,0,3.2-.543,6.313,6.313,0,0,0,2.21-2.062,13.457,13.457,0,0,0,1.459-2.929,31.168,31.168,0,0,0,.95-3.161,14.359,14.359,0,0,0,.443-2.735,2.466,2.466,0,0,0-.254-1.541q-.307-.389-1.009.3a12.486,12.486,0,0,0-1.813,2.794,15.7,15.7,0,0,0-.6,1.607q-.4,1.194-.762,2.64a19.87,19.87,0,0,0-.5,2.6q-.129,1.158.2,1.489A2.619,2.619,0,0,1,148,96.139a3.138,3.138,0,0,1-.933-2.234,14.251,14.251,0,0,1,.213-3.473,37.7,37.7,0,0,1,.873-3.881q.544-1.937,1.057-3.449t.775-2.175A3.291,3.291,0,0,1,152.2,81.142Z" transform="translate(-73.723 -80.491)" fill="#fff"/>
      <path id="Контур_182" data-name="Контур 182" d="M158.709,86.856a3.106,3.106,0,0,1,1.422.491,2,2,0,0,1,.845,1.216q-.26,1.24-.673,2.894-.32,1.253-.567,2.34a8.273,8.273,0,0,0-.26,2.1,1.454,1.454,0,0,0,.614,1.283.36.36,0,0,0,.059.047.35.35,0,0,1,.089.072c.02.023.017.051-.006.082a.7.7,0,0,1-.167.13,3.516,3.516,0,0,1-1.606.514,2.773,2.773,0,0,1-1.667-.36,2.265,2.265,0,0,1-1.015-1.548,10.8,10.8,0,0,1,0-3.519,29.731,29.731,0,0,1,1.441-5.612A3.959,3.959,0,0,1,158.709,86.856Zm3.478-4.832a2.555,2.555,0,1,1-1.813-.749A2.475,2.475,0,0,1,162.187,82.024Z" transform="translate(-70.112 -80.282)" fill="#fff"/>
      <path id="Контур_183" data-name="Контур 183" d="M163.753,91.624a1.049,1.049,0,0,1-.047.178q-.131.449-.313,1.228a11.17,11.17,0,0,0-.254,1.531,1.794,1.794,0,0,0,.154,1.1,1.194,1.194,0,0,0,.095.107.284.284,0,0,1,.052.065c.013.02.008.042-.011.071a.576.576,0,0,1-.124.111,2.858,2.858,0,0,1-1.305.491,2.354,2.354,0,0,1-1.359-.224,1.916,1.916,0,0,1-.927-1.129,9.106,9.106,0,0,1-.206-3.673,26.346,26.346,0,0,1,1.53-6.085,3.268,3.268,0,0,1,2.208.219,2.769,2.769,0,0,1,1.548,1.637,10.075,10.075,0,0,1,1.808-1.819V85.41c.007,0,.011,0,.011-.013a3.335,3.335,0,0,1,2.269.248,2.7,2.7,0,0,1,1.523,1.748,12.906,12.906,0,0,0-.933,2.67,2.231,2.231,0,0,0,.143,1.524,1.787,1.787,0,0,1-1.661.219,2.633,2.633,0,0,1-1.335-1.288,5.126,5.126,0,0,1-.525-2.451A38.461,38.461,0,0,0,163.753,91.624Z" transform="translate(-68.554 -78.629)" fill="#fff"/>
      <path id="Контур_184" data-name="Контур 184" d="M173.637,94.585a3.545,3.545,0,0,0,2.434-1.157c.33-.11.5-.023.508.265a1.831,1.831,0,0,1-.562,1.1,4.857,4.857,0,0,1-1.825,1.192,8.843,8.843,0,0,1-3.272.55,3.635,3.635,0,0,1-2.829-1.247,4.855,4.855,0,0,1-1.057-2.9,7.516,7.516,0,0,1,.632-3.419,6.663,6.663,0,0,1,2.232-2.8,5.845,5.845,0,0,1,3.751-1.034,3.382,3.382,0,0,1,2.468,1.1,3.074,3.074,0,0,1,.7,2.357,4.509,4.509,0,0,1-1.335,2.67,8.075,8.075,0,0,1-3.643,2.025A1.882,1.882,0,0,0,173.637,94.585Zm-.974-6.278a4.678,4.678,0,0,0-.869,1.671,5.059,5.059,0,0,0-.236,1.95,6.288,6.288,0,0,0,1.435-1.288,5.8,5.8,0,0,0,1.034-1.654q.307-.8-.224-1.1A.985.985,0,0,0,172.663,88.307Z" transform="translate(-65.431 -78.696)" fill="#fff"/>
      <path id="Контур_185" data-name="Контур 185" d="M179.6,88.826a7.908,7.908,0,0,0-.81,2.186,4.963,4.963,0,0,0-.041,2.238,1.434,1.434,0,0,0,1.235,1.17,5.115,5.115,0,0,0,3.03-1.027q.485-.165.5.265a1.849,1.849,0,0,1-.55,1.1,4.82,4.82,0,0,1-1.778,1.2,8.153,8.153,0,0,1-3.176.543,3.55,3.55,0,0,1-2.883-1.365,5.175,5.175,0,0,1-.992-3.126,7.115,7.115,0,0,1,.9-3.532,6.694,6.694,0,0,1,2.87-2.728,6.36,6.36,0,0,1,3.332-.651,3.772,3.772,0,0,1,2.416.9,2.128,2.128,0,0,1,.643,1.654,2.977,2.977,0,0,1-.627,1.654,2.341,2.341,0,0,1-1.411.914,1.948,1.948,0,0,1-1.707-.579c-.04-.04-.052-.075-.041-.106a.19.19,0,0,1,.065-.083,1.342,1.342,0,0,0,.4-.625,1.394,1.394,0,0,0,.058-.7.335.335,0,0,0-.347-.312Q180.131,87.887,179.6,88.826Z" transform="translate(-62.51 -78.72)" fill="#fff"/>
      <path id="Контур_186" data-name="Контур 186" d="M181.585,83.56a20.369,20.369,0,0,0,2.386.188q.591-1.689.91-2.551l.106-.295a3.352,3.352,0,0,1,2.275.248,2.659,2.659,0,0,1,1.517,1.748,10.288,10.288,0,0,1-.295,1.027,2.018,2.018,0,0,1,1.246.378q.468.366.3,1.748-.933-.059-2.245-.083c-.055.167-.114.339-.176.521q-.709,2.032-1.466,4.335t-1.192,4.188a6.023,6.023,0,0,0-.213,2.663l.024.048c.024.071.04.124.048.159s0,.059-.018.071a.5.5,0,0,1-.1.041.082.082,0,0,0-.035.013q-1.8.542-2.516-.437a4.652,4.652,0,0,1-.667-2.911,22.274,22.274,0,0,1,.579-4.266q.525-2.333,1.211-4.494a2.463,2.463,0,0,1-1.565-.549Q181.16,84.858,181.585,83.56Z" transform="translate(-59.522 -80.476)" fill="#fff"/>
      <path id="Контур_187" data-name="Контур 187" d="M105.287,80.927a4.248,4.248,0,0,0-.938-.356c-.154.061-.31.117-.474.168a.688.688,0,0,1-.57.364l-.034,0a4.82,4.82,0,0,1-1.343.034l-.073,0a.6.6,0,0,1-.432.168,1.061,1.061,0,0,1-.267-.038,7.982,7.982,0,0,1-1.233-.422,5.346,5.346,0,0,0-.776.449c.159.206.315.413.463.617l.209.279a1.168,1.168,0,0,1,.238.44c.171.691-.717,1.407-1.4,1.6a1.759,1.759,0,0,1-.464.068,1.074,1.074,0,0,1-1.027-.689A8.693,8.693,0,0,0,96.3,86.4a7.945,7.945,0,0,0,.466,3.632A10.291,10.291,0,0,0,98.429,93c.04.04.079.083.119.13q.425.521.84,1.07a6.114,6.114,0,0,1,.638,1.022,1.205,1.205,0,0,1,.117.579q-.083.709-1.322.745a3.218,3.218,0,0,1-1.737-.7,3.029,3.029,0,0,1-1.17-1.885c-.031-.172-.11-.213-.236-.123a1.391,1.391,0,0,0-.378.549,3.265,3.265,0,0,0-.254.981,2.8,2.8,0,0,0,.124,1.168,2.959,2.959,0,0,0,1.63,1.72,5.685,5.685,0,0,0,2.64.449,7.167,7.167,0,0,0,2.74-.691,4.353,4.353,0,0,0,1.932-1.713,2.56,2.56,0,0,0,.272-1.878,4.846,4.846,0,0,0-.727-1.678,11.644,11.644,0,0,0-1.094-1.346,13.765,13.765,0,0,1-.979-1.194,4.389,4.389,0,0,1-.675-1.381,4.487,4.487,0,0,1,.167-2.616,2.125,2.125,0,0,1,1.357-1.507q.864-.093,1,.526a2.124,2.124,0,0,1-.207,1.359,1.962,1.962,0,0,1-.921,1.009c-.095.032-.1.079-.023.143a2.009,2.009,0,0,0,2.067.436,4.041,4.041,0,0,0,1.936-1.487,4.611,4.611,0,0,0,.921-2.493,3.5,3.5,0,0,0-.365-1.765A3.4,3.4,0,0,0,105.287,80.927Z" transform="translate(-95.028 -80.571)" fill="#fff"/>
    </g>
    <g id="Сгруппировать_34" data-name="Сгруппировать 34" transform="translate(112.663 58.211)">
      <path id="Контур_188" data-name="Контур 188" d="M133.815,65.2a5.621,5.621,0,0,1,3.864.421,4.585,4.585,0,0,1,2.592,2.96q-.205.9-.676,2.481-.595,2.028-1.159,4.405a18.927,18.927,0,0,0-.563,4.325,3.01,3.01,0,0,0,1.087,2.684.4.4,0,0,1,.123.072.111.111,0,0,1,.041.123c-.014.048-.082.106-.2.175q-3.425,1.619-5.176.984a3.567,3.567,0,0,1-2.265-2.726,14.7,14.7,0,0,1-.246-4.877,16.257,16.257,0,0,1-4.641,6.137,6.947,6.947,0,0,1-4.826,1.69,3.14,3.14,0,0,1-2.337-1.619,7.805,7.805,0,0,1-.952-3.5,15.2,15.2,0,0,1,.44-4.51,16.047,16.047,0,0,1,2.489-5.5A11.628,11.628,0,0,1,126.068,65a6.367,6.367,0,0,1,3.26-.594,3.1,3.1,0,0,1,2.335,1.3,4.149,4.149,0,0,1,.329,3.309,4.806,4.806,0,0,0-4.376.512,7.17,7.17,0,0,0-2.479,3.341,8.2,8.2,0,0,0-.6,3.7q.176,1.63,1.262,1.6T128.9,75.2A59.176,59.176,0,0,0,133.815,65.2Z" transform="translate(-96.408 -53.889)" fill="#fff"/>
      <path id="Контур_189" data-name="Контур 189" d="M141.128,65.273a4.645,4.645,0,0,1,2.633,3.023q-.205,1.005-.471,2.152a23.666,23.666,0,0,1,5.657-5.574h.041c0-.014.006-.021.02-.021a5.378,5.378,0,0,1,3.782.471,4.651,4.651,0,0,1,2.51,3.034q-.411,2.049-1.046,4.487-.512,1.968-.943,3.854a14.337,14.337,0,0,0-.45,3.638,2.516,2.516,0,0,0,1.065,2.222.247.247,0,0,0,.1.062,1.057,1.057,0,0,1,.154.144.106.106,0,0,1-.01.143,1.2,1.2,0,0,1-.286.226,6.145,6.145,0,0,1-2.787.892,4.827,4.827,0,0,1-2.89-.625,3.875,3.875,0,0,1-1.743-2.685,16.279,16.279,0,0,1-.2-4.324,35.619,35.619,0,0,1,1.087-6.271A61.791,61.791,0,0,0,143.29,75.5a20.432,20.432,0,0,0-2.5,4.7,5.689,5.689,0,0,0,.124,2.644.206.206,0,0,0,.041.082.173.173,0,0,1,.02.072.112.112,0,0,1-.01.051.228.228,0,0,1-.072.061,3.823,3.823,0,0,1-1.7.8,6.294,6.294,0,0,1-1.7.123q-3.095-.144-3.381-4.96t3.073-14.222A5.687,5.687,0,0,1,141.128,65.273Z" transform="translate(-89.98 -53.766)" fill="#fff"/>
      <path id="Контур_190" data-name="Контур 190" d="M156.466,65.273A4.652,4.652,0,0,1,159.1,68.3q-.205,1.005-.471,2.152a23.661,23.661,0,0,1,5.656-5.574h.041a.019.019,0,0,1,.021-.021,5.373,5.373,0,0,1,3.78.471,4.651,4.651,0,0,1,2.51,3.034q-.409,2.049-1.044,4.487-.512,1.968-.943,3.854a14.345,14.345,0,0,0-.452,3.638,2.519,2.519,0,0,0,1.065,2.222.262.262,0,0,0,.1.062,1.136,1.136,0,0,1,.154.144.105.105,0,0,1-.01.143,1.19,1.19,0,0,1-.288.226,6.134,6.134,0,0,1-2.787.892,4.831,4.831,0,0,1-2.89-.625,3.874,3.874,0,0,1-1.741-2.685,16.218,16.218,0,0,1-.2-4.324,35.6,35.6,0,0,1,1.085-6.271,61.767,61.767,0,0,0-4.057,5.379,20.435,20.435,0,0,0-2.5,4.7,5.7,5.7,0,0,0,.123,2.644.227.227,0,0,0,.041.082.157.157,0,0,1,.021.072.112.112,0,0,1-.011.051.216.216,0,0,1-.071.061,3.835,3.835,0,0,1-1.7.8,6.281,6.281,0,0,1-1.7.123q-3.095-.144-3.382-4.96t3.075-14.222A5.687,5.687,0,0,1,156.466,65.273Z" transform="translate(-83.676 -53.766)" fill="#fff"/>
      <path id="Контур_191" data-name="Контур 191" d="M180.014,65.2a5.617,5.617,0,0,1,3.862.421,4.587,4.587,0,0,1,2.594,2.96q-.205.9-.677,2.481-.595,2.028-1.157,4.405a18.856,18.856,0,0,0-.564,4.325,3.014,3.014,0,0,0,1.087,2.684.4.4,0,0,1,.123.072.109.109,0,0,1,.041.123c-.014.048-.082.106-.2.175q-3.423,1.619-5.175.984a3.562,3.562,0,0,1-2.265-2.726,14.7,14.7,0,0,1-.246-4.877,16.259,16.259,0,0,1-4.643,6.137,6.942,6.942,0,0,1-4.826,1.69,3.143,3.143,0,0,1-2.337-1.619,7.824,7.824,0,0,1-.952-3.5,15.251,15.251,0,0,1,.44-4.51,16.023,16.023,0,0,1,2.491-5.5A11.619,11.619,0,0,1,172.267,65a6.362,6.362,0,0,1,3.258-.594,3.1,3.1,0,0,1,2.337,1.3,4.15,4.15,0,0,1,.327,3.309,4.807,4.807,0,0,0-4.376.512,7.18,7.18,0,0,0-2.479,3.341,8.216,8.216,0,0,0-.594,3.7q.174,1.63,1.26,1.6T175.1,75.2A59.047,59.047,0,0,0,180.014,65.2Z" transform="translate(-77.416 -53.889)" fill="#fff"/>
      <path id="Контур_192" data-name="Контур 192" d="M127,63.368a7.171,7.171,0,0,0-1.753-4.324,6.952,6.952,0,0,0-4.846-2.08,12.032,12.032,0,0,0-6.876,1.6,18.062,18.062,0,0,0-5.338,4.795,26.205,26.205,0,0,0-3.546,6.333q-.588,1.543-1.012,3.034c.492-.392.989-.752,1.47-1.091a.528.528,0,0,1,.751.713,18.8,18.8,0,0,1-2.989,3.827l-.03.182c.069-.044.137-.089.206-.13.1-.062.2-.127.3-.2l.169-.114a.545.545,0,0,1,.4-.079.537.537,0,0,1,.278.159l.013-.013a4.089,4.089,0,0,1,.365-.329A10.657,10.657,0,0,0,106.9,73.21a.531.531,0,0,1,.35-.224.761.761,0,0,1,.635.14.776.776,0,0,1,.24.617,12.259,12.259,0,0,1-.478,3.454,8.322,8.322,0,0,1-.564,1.367.572.572,0,0,1,.08.085.527.527,0,0,1,.048.57,10.156,10.156,0,0,1-1.961,2.523l-.016.014a.551.551,0,0,1,.058.143.532.532,0,0,1-.183.535,15.828,15.828,0,0,1-2.033,1.387,8.265,8.265,0,0,0,.7,1.672,5.238,5.238,0,0,1,.68.179.528.528,0,0,1,.116.941,5.554,5.554,0,0,0,.7.662A7.864,7.864,0,0,0,110.7,88.9a15.9,15.9,0,0,0,11.138-5.646,3.632,3.632,0,0,0,.861-1.7q.021-.574-.82-.165-4.242,2.707-6.783,2.757a3.382,3.382,0,0,1-3.463-1.916,8.826,8.826,0,0,1-.3-5.318,27.061,27.061,0,0,1,2.756-7.429,14.509,14.509,0,0,1,3-3.893q1.731-1.558,2.736-1.435a1.534,1.534,0,0,1,1.2,1.5,5.033,5.033,0,0,1-.646,2.571,7.5,7.5,0,0,1-1.957,2.419,4.316,4.316,0,0,1-2.736,1.034.244.244,0,0,0-.092.021.129.129,0,0,0-.072.072.215.215,0,0,0,.021.154q1.044,2.561,2.582,3.155a3.692,3.692,0,0,0,3.165-.255,9.376,9.376,0,0,0,2.993-2.582,12.535,12.535,0,0,0,2.059-3.823A12.88,12.88,0,0,0,127,63.368Z" transform="translate(-102.83 -56.943)" fill="#fff"/>
    </g>
  </g>
</svg>
